<?xml version="1.0" standalone="no"?>
<!DOCTYPE svg PUBLIC "-//W3C//DTD SVG 20010904//EN"
 "http://www.w3.org/TR/2001/REC-SVG-20010904/DTD/svg10.dtd">
<svg version="1.0" xmlns="http://www.w3.org/2000/svg"
 width="477.000000pt" height="477.000000pt" viewBox="0 0 477.000000 477.000000"
 preserveAspectRatio="xMidYMid meet">
<metadata>
Created by potrace 1.11, written by Peter Selinger 2001-2013
</metadata>
<g transform="translate(0.000000,477.000000) scale(0.100000,-0.100000)"
fill="#000000" stroke="none">
<path d="M310 4754 c-87 -23 -136 -52 -189 -110 -59 -64 -86 -131 -101 -246
-14 -114 -14 -3902 0 -4016 6 -46 20 -108 31 -137 25 -68 97 -149 162 -181 94
-48 151 -54 559 -54 l376 0 -112 338 -113 337 -111 3 -112 3 0 794 0 795 -225
113 -225 112 225 113 225 112 0 680 0 679 112 3 111 3 113 338 112 337 -391
-1 c-312 0 -403 -3 -447 -15z"/>
<path d="M3580 4762 c0 -5 51 -157 114 -338 l114 -329 116 -3 116 -3 2 -680 3
-680 233 -112 233 -112 -236 -114 -235 -114 0 -793 0 -793 -116 -3 -116 -3
-114 -329 c-63 -181 -114 -333 -114 -338 0 -4 177 -8 393 -8 425 0 479 5 576
55 100 50 167 146 191 270 8 44 10 601 8 2090 -3 1893 -4 2033 -20 2080 -40
117 -118 194 -238 237 -63 22 -76 23 -487 26 -246 2 -423 -1 -423 -6z"/>
<path d="M1747 3484 c-65 -20 -121 -78 -141 -145 -13 -44 -16 -122 -16 -475 0
-399 1 -426 20 -477 24 -63 69 -110 130 -134 41 -16 94 -18 578 -21 l532 -3 0
-204 0 -205 -202 0 c-112 0 -395 -3 -630 -7 l-428 -6 0 -209 0 -208 733 0
c816 0 803 -1 877 66 74 67 75 72 75 574 l0 446 -25 48 c-14 27 -41 62 -60 77
-70 56 -104 59 -667 59 l-513 0 0 210 0 210 566 2 566 3 68 208 68 207 -742
-1 c-623 0 -749 -3 -789 -15z"/>
</g>
</svg>
