<?xml version="1.0" encoding="UTF-8"?>
<!DOCTYPE svg PUBLIC "-//W3C//DTD SVG 1.1//EN" "http://www.w3.org/Graphics/SVG/1.1/DTD/svg11.dtd">
<!-- Creator: CorelDRAW X8 -->
<svg xmlns="http://www.w3.org/2000/svg" xml:space="preserve" width="1498px" height="375px" version="1.1" style="shape-rendering:geometricPrecision; text-rendering:geometricPrecision; image-rendering:optimizeQuality; fill-rule:evenodd; clip-rule:evenodd" viewBox="0 0 149800000 37499946" xmlns:xlink="http://www.w3.org/1999/xlink">
 <defs>
  <style type="text/css">
   <![CDATA[
    .fil0 {fill:#FFFFFF}
    .fil1 {fill:#FFFFFF;fill-rule:nonzero}
   ]]>
  </style>
 </defs>
 <g id="Слой_x0020_1">
  <metadata id="CorelCorpID_0Corel-Layer"/>
  <g id="_895705984">
   <polygon class="fil0" points="126517390,13417 89030823,37499984 112313546,37499946 149800076,13342 "/>
   <path class="fil0" d="M0 37499984l28051051 -28051051c6273261,-6273260 13907793,-9435591 22779517,-9435591l72465379 0 -14057500 14057500 -54725523 0c-6452145,0 -12004498,2299918 -16566880,6862224l-16566918 16566918 -21379126 0z"/>
   <path class="fil0" d="M25039939 37499984l15939592 -15939592c3421796,-3421795 7586079,-5146658 12425160,-5146658l53490827 75 -13032417 13032342 -36659002 0c-2984126,0 -5552126,1063710 -7662161,3173782l-4880051 4880051 -19621948 0z"/>
   <polygon class="fil1" points="123435185,37499984 123435185,33561111 121984300,33561111 121984300,32760078 125871507,32760078 125871507,33561111 124427500,33561111 124427500,37499984 "/>
   <polygon id="1" class="fil1" points="126500004,37499984 126500004,32760078 127986190,32760078 128864477,35992860 129732483,32760078 131222146,32760078 131222146,37499984 130305082,37499984 130301642,33768532 129335595,37499984 128382020,37499984 127420471,33768532 127417031,37499984 "/>
  </g>
 </g>
</svg>